{
  "images" : [
    {
      "idiom" : "universal",
      "filename" : "png-transparent-check-mark-error-s-text-photography-area-thumbnail.png"
    }
  ],
  "info" : {
    "version" : 1,
    "author" : "xcode"
  }
}